MIPS/Debug/core.vcd
$date
	Tue May 25 13:28:14 2021
$end
$version
	Icarus Verilog
$end
$timescale
	10ps
$end
$scope module tb_core $end
$var reg 1 ! clk $end
$var reg 1 " rst_n $end
$scope module m_core $end
$var wire 1 # c_regWrite $end
$var wire 1 ! clk $end
$var wire 1 " rst_n $end
$var wire 32 $ sE_mux_1 [31:0] $end
$var wire 32 % result_alu [31:0] $end
$var wire 32 & reg_instr [31:0] $end
$var wire 1 ' reg_Wb $end
$var wire 32 ( reg_WBData [31:0] $end
$var wire 5 ) reg_Rd4 [4:0] $end
$var wire 5 * reg_Rd3 [4:0] $end
$var wire 5 + reg_Rd2 [4:0] $end
$var wire 4 , reg_Mem [3:0] $end
$var wire 16 - reg_Imm [15:0] $end
$var wire 12 . reg_Ex [11:0] $end
$var wire 32 / reg_D [31:0] $end
$var wire 32 0 reg_B [31:0] $end
$var wire 32 1 reg_ALUout [31:0] $end
$var wire 32 2 reg_A [31:0] $end
$var wire 32 3 regFile_wdata [31:0] $end
$var wire 30 4 pc_jump [29:0] $end
$var wire 32 5 pc [31:0] $end
$var wire 32 6 o_rdata2 [31:0] $end
$var wire 32 7 o_rdata1 [31:0] $end
$var wire 32 8 o_data_memory [31:0] $end
$var wire 32 9 next_addr_pc [31:0] $end
$var wire 32 : new_addr_pc [31:0] $end
$var wire 32 ; mux_alu [31:0] $end
$var wire 12 < instrCode [11:0] $end
$var wire 12 = i_regEx [11:0] $end
$var wire 6 > func [5:0] $end
$var wire 32 ? forwardB [31:0] $end
$var wire 32 @ forwardA [31:0] $end
$var wire 1 A c_regDst $end
$var wire 1 B c_memWrite $end
$var wire 1 C c_memToReg $end
$var wire 1 D c_memRead $end
$var wire 1 E c_jump $end
$var wire 1 F c_branch $end
$var wire 12 G c_bit [11:0] $end
$var wire 1 H c_aluSrc $end
$var wire 2 I c_aluOp [1:0] $end
$var wire 4 J c_aluControl [3:0] $end
$var wire 1 K alu_zero $end
$var wire 5 L addr_reg_write [4:0] $end
$var wire 32 M addr_pc [31:0] $end
$var wire 32 N Rt [31:0] $end
$var wire 32 O Rs [31:0] $end
$var wire 1 P PCSrc $end
$var reg 2 Q c_forwardA [1:0] $end
$var reg 2 R c_forwardB [1:0] $end
$var reg 1 S stall $end
$scope module mod_adder $end
$var wire 32 T i_op2 [31:0] $end
$var wire 32 U o_result [31:0] $end
$var wire 32 V i_op1 [31:0] $end
$upscope $end
$scope module mod_alu $end
$var wire 4 W i_control [3:0] $end
$var wire 1 X o_zf $end
$var wire 32 Y i_op2 [31:0] $end
$var wire 32 Z i_op1 [31:0] $end
$var reg 32 [ o_result [31:0] $end
$upscope $end
$scope module mod_aluControl $end
$var wire 6 \ i_func [5:0] $end
$var wire 2 ] i_aluOp [1:0] $end
$var reg 4 ^ o_aluControl [3:0] $end
$upscope $end
$scope module mod_control $end
$var wire 12 _ i_instrCode [11:0] $end
$var reg 2 ` o_aluOp [1:0] $end
$var reg 1 a o_aluSrc $end
$var reg 1 b o_branch $end
$var reg 1 c o_jump $end
$var reg 1 d o_memRead $end
$var reg 1 e o_memToReg $end
$var reg 1 f o_memWrite $end
$var reg 1 g o_regDst $end
$var reg 1 h o_regWrite $end
$upscope $end
$scope module mod_equally $end
$var wire 1 K o_equ $end
$var wire 32 i i_dat1 [31:0] $end
$var wire 32 j i_dat0 [31:0] $end
$upscope $end
$scope module mod_nextpc $end
$var wire 1 F i_Beq $end
$var wire 1 k i_Bne $end
$var wire 26 l i_Imm [25:0] $end
$var wire 1 E i_J $end
$var wire 30 m i_PC [29:0] $end
$var wire 1 K i_zero $end
$var wire 1 P o_PCSrc $end
$var wire 30 n se [29:0] $end
$var wire 30 o o_PC [29:0] $end
$var wire 30 p mux0 [29:0] $end
$scope module mux_next_pc $end
$var wire 1 E i_control $end
$var wire 30 q i_dat0 [29:0] $end
$var wire 30 r i_dat1 [29:0] $end
$var wire 30 s o_dat [29:0] $end
$var reg 30 t o_reg [29:0] $end
$upscope $end
$upscope $end
$scope module mod_pc $end
$var wire 1 ! i_clk $end
$var wire 1 S i_en_n $end
$var wire 1 " i_rst_n $end
$var wire 32 u i_pc [31:0] $end
$var reg 32 v o_pc [31:0] $end
$upscope $end
$scope module mod_ram $end
$var wire 5 w i_addr [4:0] $end
$var wire 1 ! i_clk $end
$var wire 1 B i_we $end
$var wire 32 x o_data [31:0] $end
$var wire 32 y i_data [31:0] $end
$upscope $end
$scope module mod_regFile $end
$var wire 1 ! i_clk $end
$var wire 5 z i_raddr1 [4:0] $end
$var wire 5 { i_raddr2 [4:0] $end
$var wire 1 # i_we $end
$var wire 32 | o_rdata2 [31:0] $end
$var wire 32 } o_rdata1 [31:0] $end
$var wire 32 ~ i_wdata [31:0] $end
$var wire 5 !" i_waddr [4:0] $end
$upscope $end
$scope module mod_signEntend $end
$var wire 1 "" en $end
$var wire 32 #" o_data [31:0] $end
$var wire 16 $" i_data [15:0] $end
$upscope $end
$scope module mux_ForwardA $end
$var wire 2 %" i_control [1:0] $end
$var wire 32 &" i_dat0 [31:0] $end
$var wire 32 '" i_dat1 [31:0] $end
$var wire 32 (" i_dat3 [31:0] $end
$var wire 32 )" i_dat2 [31:0] $end
$var reg 32 *" o_dat [31:0] $end
$upscope $end
$scope module mux_ForwardB $end
$var wire 2 +" i_control [1:0] $end
$var wire 32 ," i_dat0 [31:0] $end
$var wire 32 -" i_dat1 [31:0] $end
$var wire 32 ." i_dat3 [31:0] $end
$var wire 32 /" i_dat2 [31:0] $end
$var reg 32 0" o_dat [31:0] $end
$upscope $end
$scope module mux_alu_ $end
$var wire 1 H i_control $end
$var wire 32 1" i_dat1 [31:0] $end
$var wire 32 2" o_dat [31:0] $end
$var wire 32 3" i_dat0 [31:0] $end
$var reg 32 4" o_reg [31:0] $end
$upscope $end
$scope module mux_alu_memory $end
$var wire 1 C i_control $end
$var wire 32 5" i_dat1 [31:0] $end
$var wire 32 6" o_dat [31:0] $end
$var wire 32 7" i_dat0 [31:0] $end
$var reg 32 8" o_reg [31:0] $end
$upscope $end
$scope module mux_control $end
$var wire 1 9" i_control $end
$var wire 12 :" i_dat0 [11:0] $end
$var wire 12 ;" i_dat1 [11:0] $end
$var wire 12 <" o_dat [11:0] $end
$var reg 12 =" o_reg [11:0] $end
$upscope $end
$scope module mux_new_pc $end
$var wire 1 P i_control $end
$var wire 32 >" i_dat0 [31:0] $end
$var wire 32 ?" i_dat1 [31:0] $end
$var wire 32 @" o_dat [31:0] $end
$var reg 32 A" o_reg [31:0] $end
$upscope $end
$scope module mux_pc_reg $end
$var wire 1 A i_control $end
$var wire 5 B" i_dat0 [4:0] $end
$var wire 5 C" i_dat1 [4:0] $end
$var wire 5 D" o_dat [4:0] $end
$var reg 5 E" o_reg [4:0] $end
$upscope $end
$scope module r_A $end
$var wire 1 ! i_clk $end
$var wire 1 F" i_en $end
$var wire 32 G" i_reg [31:0] $end
$var wire 1 " i_rst_n $end
$var wire 1 H" i_srst $end
$var reg 32 I" o_reg [31:0] $end
$upscope $end
$scope module r_ALUout $end
$var wire 1 ! i_clk $end
$var wire 1 J" i_en $end
$var wire 32 K" i_reg [31:0] $end
$var wire 1 " i_rst_n $end
$var wire 1 L" i_srst $end
$var reg 32 M" o_reg [31:0] $end
$upscope $end
$scope module r_B $end
$var wire 1 ! i_clk $end
$var wire 1 N" i_en $end
$var wire 32 O" i_reg [31:0] $end
$var wire 1 " i_rst_n $end
$var wire 1 P" i_srst $end
$var reg 32 Q" o_reg [31:0] $end
$upscope $end
$scope module r_D $end
$var wire 1 ! i_clk $end
$var wire 1 R" i_en $end
$var wire 32 S" i_reg [31:0] $end
$var wire 1 " i_rst_n $end
$var wire 1 T" i_srst $end
$var reg 32 U" o_reg [31:0] $end
$upscope $end
$scope module r_Ex $end
$var wire 1 ! i_clk $end
$var wire 1 V" i_en $end
$var wire 12 W" i_reg [11:0] $end
$var wire 1 " i_rst_n $end
$var wire 1 X" i_srst $end
$var reg 12 Y" o_reg [11:0] $end
$upscope $end
$scope module r_Mem $end
$var wire 1 ! i_clk $end
$var wire 1 Z" i_en $end
$var wire 4 [" i_reg [3:0] $end
$var wire 1 " i_rst_n $end
$var wire 1 \" i_srst $end
$var reg 4 ]" o_reg [3:0] $end
$upscope $end
$scope module r_Rd2 $end
$var wire 1 ! i_clk $end
$var wire 1 ^" i_en $end
$var wire 5 _" i_reg [4:0] $end
$var wire 1 " i_rst_n $end
$var wire 1 `" i_srst $end
$var reg 5 a" o_reg [4:0] $end
$upscope $end
$scope module r_Rd3 $end
$var wire 1 ! i_clk $end
$var wire 1 b" i_en $end
$var wire 5 c" i_reg [4:0] $end
$var wire 1 " i_rst_n $end
$var wire 1 d" i_srst $end
$var reg 5 e" o_reg [4:0] $end
$upscope $end
$scope module r_Rd4 $end
$var wire 1 ! i_clk $end
$var wire 1 f" i_en $end
$var wire 5 g" i_reg [4:0] $end
$var wire 1 " i_rst_n $end
$var wire 1 h" i_srst $end
$var reg 5 i" o_reg [4:0] $end
$upscope $end
$scope module r_WBData $end
$var wire 1 ! i_clk $end
$var wire 1 j" i_en $end
$var wire 32 k" i_reg [31:0] $end
$var wire 1 " i_rst_n $end
$var wire 1 l" i_srst $end
$var reg 32 m" o_reg [31:0] $end
$upscope $end
$scope module r_Wb $end
$var wire 1 ! i_clk $end
$var wire 1 n" i_en $end
$var wire 1 o" i_reg $end
$var wire 1 " i_rst_n $end
$var wire 1 p" i_srst $end
$var reg 1 ' o_reg $end
$upscope $end
$scope module r_imm $end
$var wire 1 ! i_clk $end
$var wire 1 q" i_en $end
$var wire 16 r" i_reg [15:0] $end
$var wire 1 " i_rst_n $end
$var wire 1 s" i_srst $end
$var reg 16 t" o_reg [15:0] $end
$upscope $end
$scope module r_instruction $end
$var wire 1 ! i_clk $end
$var wire 1 u" i_en $end
$var wire 1 " i_rst_n $end
$var wire 1 P i_srst $end
$var wire 32 v" i_reg [31:0] $end
$var reg 32 w" o_reg [31:0] $end
$upscope $end
$scope module rom_im $end
$var wire 8 x" i_addr [7:0] $end
$var wire 32 y" o_data [31:0] $end
$upscope $end
$upscope $end
$upscope $end
$enddefinitions $end
#0
$dumpvars
bx y"
bx x"
bx w"
bx v"
1u"
bx t"
0s"
bx r"
1q"
0p"
xo"
1n"
bx m"
0l"
bx k"
1j"
bx i"
0h"
bx g"
1f"
bx e"
0d"
bx c"
1b"
bx a"
0`"
bx _"
1^"
bx ]"
0\"
bx ["
1Z"
bx Y"
0X"
bx W"
1V"
bx U"
0T"
bx S"
1R"
bx Q"
0P"
bx O"
1N"
bx M"
0L"
bx K"
1J"
bx I"
0H"
bx G"
1F"
bx E"
bx D"
bx C"
bx B"
bx A"
bx @"
b0xxxxxxxxxxxxxxxxxxxxxxxxxxxxxx ?"
bx >"
bx ="
bx <"
b0 ;"
bx :"
x9"
bx 8"
bx 7"
bx 6"
bx 5"
bx 4"
bx 3"
bx 2"
bx 1"
bx 0"
bx /"
bx ."
bx -"
bx ,"
b0 +"
bx *"
bx )"
bx ("
bx '"
bx &"
b0 %"
bx $"
bx #"
1""
bx !"
bx ~
bx }
bx |
bx {
bx z
bx y
bx x
bx w
bx v
bx u
bx t
bx s
bx r
bx q
bx p
bx o
b0xxxxxxxxxxxxxxxxxxxxxxxxxxxxx n
bx m
bx l
0k
bx j
bx i
xh
xg
xf
xe
xd
xc
xb
xa
bx `
bx _
bx ^
bx ]
bx \
bx [
bx Z
bx Y
xX
bx W
bx V
bx U
b1 T
0S
b0 R
b0 Q
xP
b0xxxxx O
b0xxxxx N
bx M
bx L
xK
bx J
bx I
xH
bx G
xF
xE
xD
xC
xB
xA
bx @
bx ?
bx >
bx =
bx <
bx ;
bx :
bx 9
bx 8
bx 7
bx 6
bx 5
bx 4
bx 3
bx 2
bx 1
bx 0
bx /
bx .
bx -
bx ,
bx +
bx *
bx )
bx (
x'
bx &
bx %
bx $
x#
1"
1!
$end
#100
b100000100001 =
b100000100001 <"
b100000100001 W"
b100000100001 ="
b1 :
b1 u
b1 @"
b1 A"
b0 ?"
b0 4
b0 o
b0 s
b0 t
b0 L
b0 D"
b0 _"
b0 E"
09"
0P
1K
1X
0E
0F
b10 ^
1A
b0 ?
b0 i
b0 0"
b0 O"
b0 @
b0 j
b0 *"
b0 G"
0e
0d
0f
0c
0b
0a
b10 I
b10 ]
b10 `
1h
b100000100001 G
b100000100001 :"
1g
b0 3
b0 )"
b0 /"
b0 6"
b0 k"
b0 8"
b0 %
b0 [
b0 '"
b0 -"
b0 K"
b0 ;
b0 Y
b0 2"
b0 4"
b0 6
b0 |
b0 ,"
b0 7
b0 }
b0 &"
b0 p
b0 q
b0 n
b111100000000000000000001 8
b111100000000000000000001 x
b111100000000000000000001 5"
b0 w
b0 r"
b0 {
b0 z
b0 C"
b0 B"
b0 r
b0 l
b0 N
b0 O
b0 <
b0 _
b0 >
b0 \
b0 m
b100000000010100000000000000000 5
b100000000010100000000000000000 v"
b100000000010100000000000000000 y"
b0 x"
0o"
0C
0D
0B
b0 ["
b0 J
b0 W
0H
b0 )
b0 !"
b0 i"
b0 (
b0 ~
b0 ("
b0 ."
b0 m"
b0 *
b0 e"
b0 g"
b0 /
b0 y
b0 U"
b0 1
b0 7"
b0 M"
b0 +
b0 a"
b0 c"
b0 0
b0 3"
b0 Q"
b0 S"
b0 2
b0 Z
b0 I"
b0 $
b0 #"
b0 1"
b0 -
b0 $"
b0 t"
b0 &
b0 w"
b1 9
b1 U
b1 >"
b0 M
b0 V
b0 v
0#
0'
b0 ,
b0 ]"
b0 .
b0 Y"
0"
#200
1"
#2000
0!
#4000
b1010 L
b1010 D"
b1010 _"
b1010 E"
b100100001 =
b100100001 <"
b100100001 W"
b100100001 ="
xK
0A
bx ?
bx i
bx 0"
bx O"
b1 ?"
b1 4
b1 o
b1 s
b1 t
1a
b0 I
b0 ]
b0 `
b100100001 G
b100100001 :"
0g
b10 :
b10 u
b10 @"
b10 A"
bx 6
bx |
bx ,"
b1 ["
b10 J
b10 W
b1 p
b1 q
b1 m
b100000000011110000000000001000 5
b100000000011110000000000001000 v"
b100000000011110000000000001000 y"
b1 x"
b1010 {
b1010 B"
b10100000000000000000 r
b10100000000000000000 l
b1010 N
b1000000000 <
b1000000000 _
b100000100001 .
b100000100001 Y"
b10 9
b10 U
b10 >"
b1 M
b1 V
b1 v
b100000000010100000000000000000 &
b100000000010100000000000000000 w"
1!
#6000
0!
#8000
b1111 L
b1111 D"
b1111 _"
b1111 E"
b1010 ?"
b1010 4
b1010 o
b1010 s
b1010 t
b11 :
b11 u
b11 @"
b11 A"
b0 R
b0 +"
b1000 n
b1000 r"
b1111 {
b1111 B"
b11110000000000001000 r
b11110000000000001000 l
b1111 N
b1000001000 <
b1000001000 _
b1000 >
b1000 \
b1010 p
b1010 q
b10 m
b100000000011100000000000000001 5
b100000000011100000000000000001 v"
b100000000011100000000000000001 y"
b10 x"
1o"
1H
b1010 +
b1010 a"
b1010 c"
bx 0
bx 3"
bx Q"
bx S"
b100000000011110000000000001000 &
b100000000011110000000000001000 w"
b11 9
b11 U
b11 >"
b10 M
b10 V
b10 v
b1 ,
b1 ]"
b100100001 .
b100100001 Y"
1!
#10000
0!
#12000
0X
b1000 %
b1000 [
b1000 '"
b1000 -"
b1000 K"
b1110 L
b1110 D"
b1110 _"
b1110 E"
b100 ?"
b100 4
b100 o
b100 s
b100 t
b100 :
b100 u
b100 @"
b100 A"
b1000 ;
b1000 Y
b1000 2"
b1000 4"
b0 R
b0 +"
b1 n
b100 p
b100 q
b11 m
b10001101111010010000000000000001 5
b10001101111010010000000000000001 v"
b10001101111010010000000000000001 y"
b11 x"
b1 r"
b1110 {
b1110 B"
b11100000000000000001 r
b11100000000000000001 l
b1110 N
b1000000001 <
b1000000001 _
b1 >
b1 \
1#
1'
b100 9
b100 U
b100 >"
b11 M
b11 V
b11 v
b100000000011100000000000000001 &
b100000000011100000000000000001 w"
b1000 $
b1000 #"
b1000 1"
b1000 -
b1000 $"
b1000 t"
b1111 +
b1111 a"
b1111 c"
bx /
bx y
bx U"
b1010 *
b1010 e"
b1010 g"
1!
#14000
0!
#16000
b100100111 =
b100100111 <"
b100100111 W"
b100100111 ="
b1 %
b1 [
b1 '"
b1 -"
b1 K"
b1000 @
b1000 j
b1000 *"
b1000 G"
b1001 L
b1001 D"
b1001 _"
b1001 E"
1e
b100100111 G
b100100111 :"
1d
b101 ?"
b101 4
b101 o
b101 s
b101 t
b1000 3
b1000 )"
b1000 /"
b1000 6"
b1000 k"
b1000 8"
b10 Q
b10 %"
b1 ;
b1 Y
b1 2"
b1 4"
b101 :
b101 u
b101 @"
b101 A"
bx 7
bx }
bx &"
b11 8
b11 x
b11 5"
b1000 w
b1001 {
b1111 z
b1001 B"
b1111010010000000000000001 r
b1111010010000000000000001 l
b1001 N
b1111 O
b100011000001 <
b100011000001 _
b101 p
b101 q
b100 m
b1111000000110100000100000 5
b1111000000110100000100000 v"
b1111000000110100000100000 y"
b100 x"
b1010 )
b1010 !"
b1010 i"
b1111 *
b1111 e"
b1111 g"
b1000 1
b1000 7"
b1000 M"
b1110 +
b1110 a"
b1110 c"
b1 $
b1 #"
b1 1"
b1 -
b1 $"
b1 t"
b10001101111010010000000000000001 &
b10001101111010010000000000000001 w"
b101 9
b101 U
b101 >"
b100 M
b100 V
b100 v
1!
#18000
0!
#20000
b0 =
b0 <"
b0 W"
b0 ="
0K
1A
19"
b0 ?
b0 i
b0 0"
b0 O"
b1101 L
b1101 D"
b1101 _"
b1101 E"
b110100000100101 ?"
b110100000100101 4
b110100000100101 o
b110100000100101 s
b110100000100101 t
0e
0d
0a
b10 I
b10 ]
b10 `
b100000100001 G
b100000100001 :"
1g
0u"
1S
b110 :
b110 u
b110 @"
b110 A"
b1001 %
b1001 [
b1001 '"
b1001 -"
b1001 K"
b1 3
b1 )"
b1 /"
b1 6"
b1 k"
b1 8"
b11 Q
b11 %"
b0 R
b0 +"
b0 6
b0 |
b0 ,"
b110100000100000 n
b111 ["
b110100000100101 p
b110100000100101 q
b101 m
b1010010010101000000100000 5
b1010010010101000000100000 v"
b1010010010101000000100000 y"
b101 x"
b110100000100000 r"
b0 {
b1101 C"
b0 B"
b1111000000110100000100000 r
b1111000000110100000100000 l
b0 N
b100000 <
b100000 _
b100000 >
b100000 \
b1 8
b1 x
b1 5"
b1 w
b100100111 .
b100100111 Y"
b110 9
b110 U
b110 >"
b101 M
b101 V
b101 v
b1111000000110100000100000 &
b1111000000110100000100000 w"
b1000 2
b1000 Z
b1000 I"
b1001 +
b1001 a"
b1001 c"
b1 1
b1 7"
b1 M"
b1110 *
b1110 e"
b1110 g"
b1000 (
b1000 ~
b1000 ("
b1000 ."
b1000 m"
b1111 )
b1111 !"
b1111 i"
1!
#22000
0!
#24000
b100000100001 =
b100000100001 <"
b100000100001 W"
b100000100001 ="
1X
09"
b100 3
b100 )"
b100 /"
b100 6"
b100 k"
b100 8"
b0 %
b0 [
b0 '"
b0 -"
b0 K"
b1000 @
b1000 j
b1000 *"
b1000 G"
b0 ;
b0 Y
b0 2"
b0 4"
1u"
0S
b0 Q
b0 %"
b100 8
b100 x
b100 5"
b1001 w
1C
1D
b0 ["
b0 J
b0 W
0H
b1000 7
b1000 }
b1000 &"
b1110 )
b1110 !"
b1110 i"
b1 (
b1 ~
b1 ("
b1 ."
b1 m"
b1001 *
b1001 e"
b1001 g"
b1001 1
b1001 7"
b1001 M"
b1101 +
b1101 a"
b1101 c"
b0 0
b0 3"
b0 Q"
b0 S"
b110100000100000 $
b110100000100000 #"
b110100000100000 1"
b110100000100000 -
b110100000100000 $"
b110100000100000 t"
b111 ,
b111 ]"
b0 .
b0 Y"
1!
#26000
0!
#28000
0K
0X
b100 ?
b100 i
b100 0"
b100 O"
b0 @
b0 j
b0 *"
b0 G"
b1000 %
b1000 [
b1000 '"
b1000 -"
b1000 K"
b1010 L
b1010 D"
b1010 _"
b1010 E"
b101000000100110 ?"
b101000000100110 4
b101000000100110 o
b101000000100110 s
b101000000100110 t
b11 R
b11 +"
b0 3
b0 )"
b0 /"
b0 6"
b0 k"
b0 8"
b111 :
b111 u
b111 @"
b111 A"
bx 6
bx |
bx ,"
b0 7
b0 }
b0 &"
b101000000100000 n
b1 ["
b10 J
b10 W
0o"
0C
0D
b101000000100110 p
b101000000100110 q
b110 m
b1101011100110100000100010 5
b1101011100110100000100010 v"
b1101011100110100000100010 y"
b110 x"
b101000000100000 r"
b1001 {
b1010 z
b1010 C"
b1001 B"
b1010010010101000000100000 r
b1010010010101000000100000 l
b1001 N
b1010 O
b111100000000000000000001 8
b111100000000000000000001 x
b111100000000000000000001 5"
b0 w
b100000100001 .
b100000100001 Y"
b0 ,
b0 ]"
b111 9
b111 U
b111 >"
b110 M
b110 V
b110 v
b1010010010101000000100000 &
b1010010010101000000100000 w"
b0 1
b0 7"
b0 M"
b0 /
b0 y
b0 U"
b1101 *
b1101 e"
b1101 g"
b100 (
b100 ~
b100 ("
b100 ."
b100 m"
b1001 )
b1001 !"
b1001 i"
1!
#30000
0!
#32000
0K
0X
b1000 @
b1000 j
b1000 *"
b1000 G"
b100001100001 =
b100001100001 <"
b100001100001 W"
b100001100001 ="
b1101 L
b1101 D"
b1101 _"
b1101 E"
b110100000101001 ?"
b110100000101001 4
b110100000101001 o
b110100000101001 s
b110100000101001 t
b1 ?
b1 i
b1 0"
b1 O"
b1000 3
b1000 )"
b1000 /"
b1000 6"
b1000 k"
b1000 8"
b100 %
b100 [
b100 '"
b100 -"
b100 K"
b100 ;
b100 Y
b100 2"
b100 4"
b1000 :
b1000 u
b1000 @"
b1000 A"
b10 Q
b10 %"
b0 R
b0 +"
bx 7
bx }
bx &"
b110100000100010 n
b100001100001 G
b100001100001 :"
b110 ^
b11 8
b11 x
b11 5"
b1000 w
b110100000100010 r"
b1110 {
b1101 z
b1101 C"
b1110 B"
b1101011100110100000100010 r
b1101011100110100000100010 l
b1110 N
b1101 O
b100010 <
b100010 _
b100010 >
b100010 \
b110100000101001 p
b110100000101001 q
b111 m
b10001101000000000000000000001 5
b10001101000000000000000000001 v"
b10001101000000000000000000001 y"
b111 x"
1o"
b1 6
b1 |
b1 ,"
b1101 )
b1101 !"
b1101 i"
b0 (
b0 ~
b0 ("
b0 ."
b0 m"
b1000 1
b1000 7"
b1000 M"
b1010 +
b1010 a"
b1010 c"
b100 0
b100 3"
b100 Q"
b100 S"
b0 2
b0 Z
b0 I"
b101000000100000 $
b101000000100000 #"
b101000000100000 1"
b101000000100000 -
b101000000100000 $"
b101000000100000 t"
b1101011100110100000100010 &
b1101011100110100000100010 w"
b1000 9
b1000 U
b1000 >"
b111 M
b111 V
b111 v
0#
0'
b1 ,
b1 ]"
1!
#34000
0!
#36000
bx010011000x0 =
bx010011000x0 <"
bx010011000x0 W"
bx010011000x0 ="
b111 @
b111 j
b111 *"
b111 G"
1F
xA
b0 ?
b0 i
b0 0"
b0 O"
b0 L
b0 D"
b0 _"
b0 E"
b1001 ?"
b1001 4
b1001 o
b1001 s
b1001 t
xe
1b
b1 I
b1 ]
b1 `
0h
bx010011000x0 G
bx010011000x0 :"
xg
b1001 :
b1001 u
b1001 @"
b1001 A"
b111 %
b111 [
b111 '"
b111 -"
b111 K"
b1 ;
b1 Y
b1 2"
b1 4"
b100 3
b100 )"
b100 /"
b100 6"
b100 k"
b100 8"
b1 Q
b1 %"
b0 6
b0 |
b0 ,"
b1 n
b110 J
b110 W
b1001 p
b1001 q
b1000 m
b1000000100000000000000000101 5
b1000000100000000000000000101 v"
b1000000100000000000000000101 y"
b1000 x"
b1 r"
b0 {
b0 C"
b0 B"
b1101000000000000000000001 r
b1101000000000000000000001 l
b0 N
b100000001 <
b100000001 _
b1 >
b1 \
b10 8
b10 x
b10 5"
b100 w
b100001100001 .
b100001100001 Y"
1#
1'
b1001 9
b1001 U
b1001 >"
b1000 M
b1000 V
b1000 v
b10001101000000000000000000001 &
b10001101000000000000000000001 w"
b110100000100010 $
b110100000100010 #"
b110100000100010 1"
b110100000100010 -
b110100000100010 $"
b110100000100010 t"
b1000 2
b1000 Z
b1000 I"
b1 0
b1 3"
b1 Q"
b1 S"
b1101 +
b1101 a"
b1101 c"
b100 1
b100 7"
b100 M"
b100 /
b100 y
b100 U"
b1010 *
b1010 e"
b1010 g"
b1000 (
b1000 ~
b1000 ("
b1000 ."
b1000 m"
1!
#38000
0!
#40000
b0 =
b0 <"
b0 W"
b0 ="
b0 @
b0 j
b0 *"
b0 G"
19"
1P
xK
1E
0F
bx ?
bx i
bx 0"
bx O"
1c
0b
bx10x011000x0 G
bx10x011000x0 :"
xa
bx I
bx ]
bx `
b100000000000000000101 ?"
b100000000000000000101 4
b100000000000000000101 o
b100000000000000000101 s
b100000000000000000101 t
b111 3
b111 )"
b111 /"
b111 6"
b111 k"
b111 8"
b111 %
b111 [
b111 '"
b111 -"
b111 K"
b0 ;
b0 Y
b0 2"
b0 4"
b100000000000000000101 :
b100000000000000000101 u
b100000000000000000101 @"
b100000000000000000101 A"
b0 Q
b0 %"
bx 6
bx |
bx ,"
b101 n
b111 w
b101 r"
b10000 {
b0 z
b10000 B"
b100000000000000000101 r
b100000000000000000101 l
b10000 N
b0 O
b10000101 <
b10000101 _
b101 >
b101 \
b1110 p
b1110 q
b1001 m
b1111011100111100000100010 5
b1111011100111100000100010 v"
b1111011100111100000100010 y"
b1001 x"
b0x0 ["
b0 7
b0 }
b0 &"
b1010 )
b1010 !"
b1010 i"
b100 (
b100 ~
b100 ("
b100 ."
b100 m"
b1101 *
b1101 e"
b1101 g"
b1 /
b1 y
b1 U"
b111 1
b111 7"
b111 M"
b0 +
b0 a"
b0 c"
b0 0
b0 3"
b0 Q"
b0 S"
b111 2
b111 Z
b111 I"
b1 $
b1 #"
b1 1"
b1 -
b1 $"
b1 t"
b1000000100000000000000000101 &
b1000000100000000000000000101 w"
b1010 9
b1010 U
b1010 >"
b1001 M
b1001 V
b1001 v
bx010011000x0 .
bx010011000x0 Y"
1!
#42000
0!
#44000
b100000100001 =
b100000100001 <"
b100000100001 W"
b100000100001 ="
b100000000000000000110 :
b100000000000000000110 u
b100000000000000000110 @"
b100000000000000000110 A"
09"
0P
1K
1X
0E
b10 ^
1A
b0 ?
b0 i
b0 0"
b0 O"
b100000000000000000101 ?"
b100000000000000000101 4
b100000000000000000101 o
b100000000000000000101 s
b100000000000000000101 t
0e
0c
0a
b10 I
b10 ]
b10 `
1h
b100000100001 G
b100000100001 :"
1g
b0 %
b0 [
b0 '"
b0 -"
b0 K"
bx ;
bx Y
bx 2"
bx 4"
b0 6
b0 |
b0 ,"
b0 n
b0 ["
b0 J
b0 W
0o"
xC
b100000000000000000101 p
b100000000000000000101 q
b100000000000000000101 m
b1010010010101000000100000 5
b1010010010101000000100000 v"
b1010010010101000000100000 y"
b101 x"
b0 r"
b0 {
b0 B"
b0 r
b0 l
b0 N
b0 <
b0 _
b0 >
b0 \
b0 .
b0 Y"
b0x0 ,
b0x0 ]"
b100000000000000000110 9
b100000000000000000110 U
b100000000000000000110 >"
b100000000000000000101 M
b100000000000000000101 V
b100000000000000000101 v
b0 &
b0 w"
b101 $
b101 #"
b101 1"
b101 -
b101 $"
b101 t"
b0 2
b0 Z
b0 I"
bx 0
bx 3"
bx Q"
bx S"
b0 /
b0 y
b0 U"
b0 *
b0 e"
b0 g"
b111 (
b111 ~
b111 ("
b111 ."
b111 m"
b1101 )
b1101 !"
b1101 i"
1!
#46000
0!
#48000
1X
b100 ?
b100 i
b100 0"
b100 O"
b100 @
b100 j
b100 *"
b100 G"
b1010 L
b1010 D"
b1010 _"
b1010 E"
b100000101000000100110 ?"
b100000101000000100110 4
b100000101000000100110 o
b100000101000000100110 s
b100000101000000100110 t
b0 %
b0 [
b0 '"
b0 -"
b0 K"
b0 3
b0 )"
b0 /"
b0 6"
b0 k"
b0 8"
b0 ;
b0 Y
b0 2"
b0 4"
b100000000000000000111 :
b100000000000000000111 u
b100000000000000000111 @"
b100000000000000000111 A"
b100 6
b100 |
b100 ,"
b100 7
b100 }
b100 &"
b101000000100000 n
b111100000000000000000001 8
b111100000000000000000001 x
b111100000000000000000001 5"
b0 w
b101000000100000 r"
b1001 {
b1010 z
b1010 C"
b1001 B"
b1010010010101000000100000 r
b1010010010101000000100000 l
b1001 N
b1010 O
b100000 <
b100000 _
b100000 >
b100000 \
b100000101000000100110 p
b100000101000000100110 q
b100000000000000000110 m
b1101011100110100000100010 5
b1101011100110100000100010 v"
b1101011100110100000100010 y"
b110 x"
0C
b1 ["
b10 J
b10 W
b0 )
b0 !"
b0 i"
bx /
bx y
bx U"
b0 1
b0 7"
b0 M"
b0 0
b0 3"
b0 Q"
b0 S"
b0 $
b0 #"
b0 1"
b0 -
b0 $"
b0 t"
b1010010010101000000100000 &
b1010010010101000000100000 w"
b100000000000000000111 9
b100000000000000000111 U
b100000000000000000111 >"
b100000000000000000110 M
b100000000000000000110 V
b100000000000000000110 v
0#
0'
b0 ,
b0 ]"
b100000100001 .
b100000100001 Y"
1!
#50000
0!
